Additional information for xpowermon man page

--no-info

[name]
xpowermon \- X11 battery monitor for Linux laptops

[options]
In addition to the core X Toolkit options, the following are
recognised:

[resources]
The program understands all of the core X Toolkit resource names and
classes as well as:
.TP
.BR layout " (class " Layout )
Defines the layout of the widgets in the interface.  See the
description above of the
.B \-layout
option.
.TP
.BR poll " (class " Poll )
How often to poll
.B /sys/class/power_supply
for changes (milliseconds).
.PP
The widgets in the interface are named for the value they present
.RB ( current ,
.BR charge_0 ,
etc) and use the classes Meter, Gauge and Basic.
.PP
The following
resources are common to all classes:
.TP
.BR units " (class " Units )
Unit of measure to append to the value.
.TP
.BR scale " (class " Scale )
Scale (divide) the value by this amount.
.TP
.BR precision " (class " Precision )
Number of decimal places use for the scaled value.
.PP
Meter and Gauge widget specific resources:
.LP
.BR minValue " (class " MinValue )
.PD 0
.TP
.BR maxValue " (class " MaxValue )
.PD
Defines the range of values which will be presented.
.TP
.BR showValue " (class " ShowValue )
Determines whether the numeric value is to be displayed on the widget.
.TP
.BR fontColor " (class " FontColor )
Colour of the font used to display the numeric value.
.PP
Meter widget specific Resources:
.TP
.BR needleColor " (class " Foreground )
Colour for the meter needle.
.PP
Gauge widget specific Resources:
.LP
.BR warningColor " (class " Foreground )
.PD 0
.LP
.BR warningLevel " (class " WarningLevel )
.LP
.BR criticalColor " (class " Foreground )
.TP
.BR criticalLevel " (class " CriticalLevel )
.PD
Display the gauge in a different colour when the value falls to or
below each of the given warning and critical levels (as a percentage
of the range).
.PP
Basic widget specific Resources:
.TP
.BR label " (class " Label )
A text string describing the displayed value.

[files]
.TP
.B /sys/class/power_supply/AC/online
Contains an integer holding the current A/C status.
.TP
.BI /sys/class/power_supply/BAT n
Directory containing per-battery information
.RI ( n
indicates the battery number) such as the charge, current, voltage and
time remaining.
